id;name
1;male Pants Bermuda
2;capacitor till Electric
3;Dollar
4;Fiat initiatives
5;indigo Account
6;Computers Soul Buckinghamshire
7;payment Frozen including
8;demoralize carefully
9;meter Road
10;mobile Sports quantifying
