{
  "applications": "*",
  "changelogDate": "20230910125901",
  "entityTableName": "shopping_cart",
  "fields": [
    {
      "fieldName": "id",
      "fieldType": "Long"
    }
  ],
  "name": "ShoppingCart",
  "relationships": [
    {
      "otherEntityName": "customer",
      "relationshipName": "customer",
      "relationshipSide": "left",
      "relationshipType": "many-to-one"
    }
  ],
  "searchEngine": "no"
}
